﻿{
  "DossierConfiguration": {
    "DefaultHttpPort": "",
    "DefaultHttpsPort": "",
    "DefaultBoltPort": "",
    "ActiveNeo4JServer": "",
    "SshPort": "",
    "SshUsername": "",
    "SshPassword": "",
    "IneoHome": "",
    "AdminApiEndpoint": "",
    "DataTypeApiEndpoint": "",
    "DataObjectApiEndpoint": "",
    "Neo4jUsername": "",
    "Neo4jPassword": "",
    "MinYear": "",
    "MaxYear": "",
    "EventHandlerNamespace": "",
    "EventHandlerOwnerKey": "",
    "PluginEndpoint": ""
  },
  "EventHandlerConfiguration": {
    "ApiKey": "",
    "EventHandlerEndpoint": "",
    "AdminOwnerKey": ""
  },
  "TenantConfiguration": {
    "ConnectionString": ""
  },
  "SystemConfiguration": {
    "Version": "",
    "Environment": "",
    "BuiltOn": "",
    "Name": "Dossier Engine Admin API",
    "Description": ""
  },
  "PluginConfiguration": {
    "BeaMasterTenantKey": "",
    "BeaMasterDataTypeApiBaseUrl": "",
    "BeaMasterDataObjectApiBaseUrl": "",
    "BeaMasterEventNamespace": "",
    "BeaMasterEventHandlerTopic": ""
  }
}