{
  "version": "1.0.0-*",

  "buildOptions": {
    "emitEntryPoint": true
  },

  "dependencies": {
    "Digipolis.DossierEngine.Model": "1.0.0-*",
    "Neo4jClient": "2.0.0-core2",
    "Digipolis.DossierEngine.Common": "1.0.0-*",
    "Microsoft.Extensions.Options": "1.0.0",
    "Microsoft.NETCore.App": {
      "version": "1.0.0",
      "type": "platform"
    },
    "NETStandard.Library": "1.6.0",
    "Npgsql.EntityFrameworkCore.PostgreSQL": "1.0.1",
    "Npgsql.EntityFrameworkCore.PostgreSQL.Design": "1.0.1",
    "Microsoft.EntityFrameworkCore.Design": "1.0.0-preview2-final",
    "Digipolis.Common": "2.0.6",
    "Digipolis.Tenant.Library": "1.0.59" },

  "tools": {
    "Microsoft.EntityFrameworkCore.Tools": {
      "version": "1.0.0-preview2-final",
      "imports": [
        "dnxcore50",
        "portable-net45+win8"
      ]
    }
  },

  "frameworks": {
    "netcoreapp1.0": {
      "imports": [
        "dotnet5.6",
        "dnxcore50",
        "portable-net45+win8"
      ]
    }
  }
}
