{
  "version": "1.0.0-*",

  "dependencies": {
    "Digipolis.Tenant.Library": "1.0.59",
    "NETStandard.Library": "1.6.0",
    "Newtonsoft.Json": "9.0.1",
    "System.ComponentModel.Annotations": "4.1.0"
  },

  "frameworks": {
    "netcoreapp1.0": {
      "imports": [
        "dotnet5.6",
        "dnxcore50",
        "portable-net45+win8"
      ]
    }
  }
}
